{
  "url": "https://wolod.itch.io/1985",
  "device": "/dev/tty.usbmodem1422",
  "baudRate": 115200,
  "vote": false,
  "actuator": "~xinput",
  "inputs": [
    "left",
    "right",
    "down",
    "a"
  ],
  "shuffle": true,
  "showInputText": false,
  "inputsPerClient": 1.0
}