{
  "url": "http://www.dougmcinnes.com/html-5-asteroids",
  "actuator": "~robot",
  "inputs": [ "left", "right", "up", "g", "space" ],
  "showInputText": true,
  "shuffle": true,
  "shuffleTimeout": 120000,
  "inputsPerClient": 2.3
}