{
  "url": "https://www.kongregate.com/games/arawkins/dolphin-olympics-2",
  "actuator": "~robot",
  "inputs": [ "up", "down", "left", "right" ],
  "showInputText": false,
  "shuffle": true,
  "shuffleTimeout": 120000,
  "inputsPerClient": 2.3
}