{
  "url": "https://archive.org/details/arcade_indytemp",
  "actuator": "~robot",
  "inputs": [ "2", "5", "6", "7", "up", "down", "left", "right", "leftclick" ],
  "showInputText": false,
  "shuffle": true,
  "shuffleTimeout": 120000,
  "inputsPerClient": 2.3
}